…
<!-- rnb-text-begin -->


To make probabilistic arguments, we will use a Monte Carlo simulation. For each state, we apply the Bayesian approach to generate an election day $d$. We could construct the priors for each state based on recent history. However, to keep it simple, we assign a prior to each state that assumes we know nothing about what will happen. Since from election year to election year the results from a specific state don’t change that much, we will assign a standard deviation of 2% or $τ=0.02$. For now, we will assume, incorrectly, that the poll results from each state are independent. The code for the Bayesian calculation under these assumptions looks like this:

<!-- rnb-text-end -->


<!-- rnb-chunk-begin -->


<!-- rnb-source-begin eyJkYXRhIjoiYGBgclxuIz4gIyBBIHRpYmJsZTogNDcgeCAxMlxuIz4gICBzdGF0ZSAgICAgYXZnICAgICAgc2QgICAgIG4gZWxlY3RvcmFsX3ZvdGVzIGNsaW50b24gdHJ1bXAgb3RoZXJzXG4jPiAgIDxjaHI+ICAgPGRibD4gICA8ZGJsPiA8aW50PiAgICAgICAgICAgPGludD4gICA8ZGJsPiA8ZGJsPiAgPGRibD5cbiM+IDEgQWxhYuKApiAtMC4xNDkgIDIuNTNlLTIgICAgIDMgICAgICAgICAgICAgICA5ICAgIDM0LjQgIDYyLjEgICAgMy42XG4jPiAyIEFyaXrigKYgLTAuMDMyNiAyLjcwZS0yICAgICA5ICAgICAgICAgICAgICAxMSAgICA0NS4xICA0OC43ICAgIDYuMlxuIz4gMyBBcmth4oCmIC0wLjE1MSAgOS45MGUtNCAgICAgMiAgICAgICAgICAgICAgIDYgICAgMzMuNyAgNjAuNiAgICA1LjhcbiM+IDQgQ2FsaeKApiAgMC4yNjAgIDMuODdlLTIgICAgIDUgICAgICAgICAgICAgIDU1ICAgIDYxLjcgIDMxLjYgICAgNi43XG4jPiA1IENvbG/igKYgIDAuMDQ1MiAyLjk1ZS0yICAgICA3ICAgICAgICAgICAgICAgOSAgICA0OC4yICA0My4zICAgIDguNlxuIz4gIyDigKYgd2l0aCA0MiBtb3JlIHJvd3MsIGFuZCA0IG1vcmUgdmFyaWFibGVzOiBzaWdtYSA8ZGJsPiwgQiA8ZGJsPixcbiM+ICMgICBwb3N0ZXJpb3JfbWVhbiA8ZGJsPiwgcG9zdGVyaW9yX3NlIDxkYmw+XG5gYGAifQ== -->

```r
#> # A tibble: 47 x 12
#>   state     avg      sd     n electoral_votes clinton trump others
#>   <chr>   <dbl>   <dbl> <int>           <int>   <dbl> <dbl>  <dbl>
#> 1 Alab… -0.149  2.53e-2     3               9    34.4  62.1    3.6
#> 2 Ariz… -0.0326 2.70e-2     9              11    45.1  48.7    6.2
#> 3 Arka… -0.151  9.90e-4     2               6    33.7  60.6    5.8
#> 4 Cali…  0.260  3.87e-2     5              55    61.7  31.6    6.7
#> 5 Colo…  0.0452 2.95e-2     7               9    48.2  43.3    8.6
#> # … with 42 more rows, and 4 more variables: sigma <dbl>, B <dbl>,
#> #   posterior_mean <dbl>, posterior_se <dbl>
```
…
